{"url":"https:\/\/vortexwebclouds.bitrix24.in\/rest\/223\/fij2hs4zk4rmj30j\/crm.contact.list.json","info":{"url":"https:\/\/vortexwebclouds.bitrix24.in\/rest\/223\/fij2hs4zk4rmj30j\/crm.contact.list.json","content_type":"application\/json; charset=utf-8","http_code":200,"header_size":1026,"request_size":218,"filetime":-1,"ssl_verify_result":0,"redirect_count":0,"total_time":0.661861,"namelookup_time":0.004462,"connect_time":0.081414,"pretransfer_time":0.184056,"size_upload":75,"size_download":9626,"speed_download":14562,"speed_upload":113,"download_content_length":-1,"upload_content_length":75,"starttransfer_time":0.184086,"redirect_time":0,"redirect_url":"","primary_ip":"52.66.109.148","certinfo":[],"primary_port":443,"local_ip":"192.168.31.219","local_port":56534,"http_version":3,"protocol":2,"ssl_verifyresult":0,"scheme":"HTTPS","appconnect_time_us":183386,"connect_time_us":81414,"namelookup_time_us":4462,"pretransfer_time_us":184056,"redirect_time_us":0,"starttransfer_time_us":184086,"total_time_us":661861},"params":{"method":"crm.contact.list","params":{"select":["ID","NAME","PHONE","EMAIL"]}},"result":{"result":[{"ID":"1","NAME":"MORELA","EMAIL":[{"ID":"1","VALUE_TYPE":"WORK","VALUE":"dosreiseguros@gmail.com","TYPE_ID":"EMAIL"}],"PHONE":[{"ID":"3","VALUE_TYPE":"WORK","VALUE":"+7868600516","TYPE_ID":"PHONE"}]},{"ID":"3","NAME":"Google","EMAIL":[{"ID":"7","VALUE_TYPE":"WORK","VALUE":"no-reply@accounts.google.com","TYPE_ID":"EMAIL"}]},{"ID":"5","NAME":"apn-no-reply@amazon.com","EMAIL":[{"ID":"11","VALUE_TYPE":"WORK","VALUE":"apn-no-reply@amazon.com","TYPE_ID":"EMAIL"}]},{"ID":"7","NAME":"noreply@bitrix24.com","EMAIL":[{"ID":"15","VALUE_TYPE":"WORK","VALUE":"noreply@bitrix24.com","TYPE_ID":"EMAIL"}]},{"ID":"9","NAME":"partners@bitrix24.com","EMAIL":[{"ID":"19","VALUE_TYPE":"WORK","VALUE":"partners@bitrix24.com","TYPE_ID":"EMAIL"}]},{"ID":"11","NAME":"no-reply@bitrix24.net","EMAIL":[{"ID":"23","VALUE_TYPE":"WORK","VALUE":"no-reply@bitrix24.net","TYPE_ID":"EMAIL"}]},{"ID":"13","NAME":"Mail Delivery Subsystem","EMAIL":[{"ID":"27","VALUE_TYPE":"WORK","VALUE":"mailer-daemon@googlemail.com","TYPE_ID":"EMAIL"}]},{"ID":"15","NAME":"noreply@bitrix24.net","EMAIL":[{"ID":"31","VALUE_TYPE":"WORK","VALUE":"noreply@bitrix24.net","TYPE_ID":"EMAIL"}]},{"ID":"17","NAME":"LinkedIn Security","EMAIL":[{"ID":"35","VALUE_TYPE":"WORK","VALUE":"security-noreply@linkedin.com","TYPE_ID":"EMAIL"}]},{"ID":"19","NAME":"noreply@sonetel.com","EMAIL":[{"ID":"39","VALUE_TYPE":"WORK","VALUE":"noreply@sonetel.com","TYPE_ID":"EMAIL"}]},{"ID":"21","NAME":"Human resources","EMAIL":[{"ID":"43","VALUE_TYPE":"WORK","VALUE":"hr@vortexweb.cloud","TYPE_ID":"EMAIL"}]},{"ID":"23","NAME":"Calendly Webinars","EMAIL":[{"ID":"49","VALUE_TYPE":"WORK","VALUE":"webinars@calendly.com","TYPE_ID":"EMAIL"},{"ID":"51","VALUE_TYPE":"WORK","VALUE":"webinars@send.calendly.com","TYPE_ID":"EMAIL"}]},{"ID":"25","NAME":"The Calendly Team","EMAIL":[{"ID":"57","VALUE_TYPE":"WORK","VALUE":"welcome@calendly.com","TYPE_ID":"EMAIL"},{"ID":"59","VALUE_TYPE":"WORK","VALUE":"welcome@send.calendly.com","TYPE_ID":"EMAIL"}]},{"ID":"27","NAME":"Ishika","EMAIL":[{"ID":"63","VALUE_TYPE":"WORK","VALUE":"ishikabishnoi84@gmail.com","TYPE_ID":"EMAIL"}],"PHONE":[{"ID":"3831","VALUE_TYPE":"WORK","VALUE":"+919258317690","TYPE_ID":"PHONE"}]},{"ID":"29","NAME":"mikhail.rubashkin@gmail.com","EMAIL":[{"ID":"67","VALUE_TYPE":"WORK","VALUE":"mikhail.rubashkin@gmail.com","TYPE_ID":"EMAIL"}]},{"ID":"31","NAME":"Hirect","EMAIL":[{"ID":"71","VALUE_TYPE":"WORK","VALUE":"noreply@otp.hirect.in","TYPE_ID":"EMAIL"}]},{"ID":"33","NAME":"Google Workspace Technical Support Test Sender","EMAIL":[{"ID":"75","VALUE_TYPE":"WORK","VALUE":"noreply-smtptester@googleapps.com","TYPE_ID":"EMAIL"}]},{"ID":"35","NAME":"Gmail Team","EMAIL":[{"ID":"79","VALUE_TYPE":"WORK","VALUE":"mail-noreply@google.com","TYPE_ID":"EMAIL"}]},{"ID":"37","NAME":"Ishika Vishnoi","EMAIL":[{"ID":"81","VALUE_TYPE":"WORK","VALUE":"ishikavishnoi8@gmail.com","TYPE_ID":"EMAIL"}],"PHONE":[{"ID":"83","VALUE_TYPE":"WORK","VALUE":"+919258317690","TYPE_ID":"PHONE"}]},{"ID":"39","NAME":"Abdelrahman","EMAIL":[{"ID":"85","VALUE_TYPE":"WORK","VALUE":"Marketing@re1.ae","TYPE_ID":"EMAIL"}],"PHONE":[{"ID":"87","VALUE_TYPE":"WORK","VALUE":"+971554391963","TYPE_ID":"PHONE"}]},{"ID":"41","NAME":"qwerty","PHONE":[{"ID":"89","VALUE_TYPE":"OTHER","VALUE":"+919258317690","TYPE_ID":"PHONE"}]},{"ID":"43","NAME":"Aleksandr","EMAIL":[{"ID":"93","VALUE_TYPE":"WORK","VALUE":"aerkabaev@gmail.com","TYPE_ID":"EMAIL"}],"PHONE":[{"ID":"95","VALUE_TYPE":"WORK","VALUE":"+971556083990","TYPE_ID":"PHONE"}]},{"ID":"45","NAME":"eddie","EMAIL":[{"ID":"101","VALUE_TYPE":"WORK","VALUE":"eddiekun@gmail.com","TYPE_ID":"EMAIL"}],"PHONE":[{"ID":"103","VALUE_TYPE":"WORK","VALUE":"+61406881999","TYPE_ID":"PHONE"}]},{"ID":"47","NAME":"Irina","EMAIL":[{"ID":"105","VALUE_TYPE":"WORK","VALUE":"irina@rglobalproperties.com","TYPE_ID":"EMAIL"}],"PHONE":[{"ID":"107","VALUE_TYPE":"WORK","VALUE":"+971507861767","TYPE_ID":"PHONE"}]},{"ID":"49","NAME":"Saeed","EMAIL":[{"ID":"109","VALUE_TYPE":"WORK","VALUE":"alfalasi@bigstory.agency","TYPE_ID":"EMAIL"}],"PHONE":[{"ID":"111","VALUE_TYPE":"WORK","VALUE":"+971568066677","TYPE_ID":"PHONE"}]},{"ID":"51","NAME":"Mai","PHONE":[{"ID":"113","VALUE_TYPE":"OTHER","VALUE":"+919999999999","TYPE_ID":"PHONE"}],"EMAIL":[{"ID":"115","VALUE_TYPE":"OTHER","VALUE":"lololul@gmail.com","TYPE_ID":"EMAIL"}]},{"ID":"53","NAME":"ABC PROPERTIES BROKERAGE SP LLC","EMAIL":[{"ID":"121","VALUE_TYPE":"WORK","VALUE":"marketing@abcrealestate.ae","TYPE_ID":"EMAIL"}],"PHONE":[{"ID":"123","VALUE_TYPE":"WORK","VALUE":"+971544446250","TYPE_ID":"PHONE"}]},{"ID":"55","NAME":"Javed","EMAIL":[{"ID":"125","VALUE_TYPE":"WORK","VALUE":"javed.k@madaproperties.com","TYPE_ID":"EMAIL"}],"PHONE":[{"ID":"127","VALUE_TYPE":"WORK","VALUE":"+971522783729","TYPE_ID":"PHONE"}]},{"ID":"57","NAME":"reza","EMAIL":[{"ID":"129","VALUE_TYPE":"WORK","VALUE":"reza.najafisayyar@gmail.com","TYPE_ID":"EMAIL"}],"PHONE":[{"ID":"131","VALUE_TYPE":"WORK","VALUE":"+971527561876","TYPE_ID":"PHONE"}]},{"ID":"59","NAME":"Neelima","EMAIL":[{"ID":"133","VALUE_TYPE":"WORK","VALUE":"neelima@grre.ae","TYPE_ID":"EMAIL"}],"PHONE":[{"ID":"135","VALUE_TYPE":"WORK","VALUE":"+971505486798","TYPE_ID":"PHONE"}]},{"ID":"61","NAME":"Ahmad","EMAIL":[{"ID":"137","VALUE_TYPE":"WORK","VALUE":"itadmin@fgproperties.ae","TYPE_ID":"EMAIL"}],"PHONE":[{"ID":"139","VALUE_TYPE":"WORK","VALUE":"+971569094500","TYPE_ID":"PHONE"}]},{"ID":"63","NAME":"Muhammad Aaliyan","EMAIL":[{"ID":"141","VALUE_TYPE":"WORK","VALUE":"info@taxadepts.com","TYPE_ID":"EMAIL"}],"PHONE":[{"ID":"143","VALUE_TYPE":"WORK","VALUE":"+971508363418","TYPE_ID":"PHONE"}]},{"ID":"65","NAME":"Harry","EMAIL":[{"ID":"145","VALUE_TYPE":"WORK","VALUE":"quanghieu@viettel.com.vn","TYPE_ID":"EMAIL"}],"PHONE":[{"ID":"147","VALUE_TYPE":"WORK","VALUE":"+84983000800","TYPE_ID":"PHONE"}]},{"ID":"67","NAME":"Youness","EMAIL":[{"ID":"149","VALUE_TYPE":"WORK","VALUE":"mouhib.youness@gatineau.ca","TYPE_ID":"EMAIL"}],"PHONE":[{"ID":"151","VALUE_TYPE":"WORK","VALUE":"+5812461048","TYPE_ID":"PHONE"}]},{"ID":"69","NAME":"VINEESH","EMAIL":[{"ID":"153","VALUE_TYPE":"WORK","VALUE":"vineesh@nuvatic.ae","TYPE_ID":"EMAIL"}],"PHONE":[{"ID":"155","VALUE_TYPE":"WORK","VALUE":"+971501423081","TYPE_ID":"PHONE"}]},{"ID":"71","NAME":"Surya","EMAIL":[{"ID":"157","VALUE_TYPE":"WORK","VALUE":"surya@vnrrealestate.com","TYPE_ID":"EMAIL"}],"PHONE":[{"ID":"159","VALUE_TYPE":"WORK","VALUE":"+971545014005","TYPE_ID":"PHONE"}]},{"ID":"73","NAME":"Omar","EMAIL":[{"ID":"161","VALUE_TYPE":"WORK","VALUE":"omar@mentalunblock.com","TYPE_ID":"EMAIL"}],"PHONE":[{"ID":"163","VALUE_TYPE":"WORK","VALUE":"+971506951919","TYPE_ID":"PHONE"}]},{"ID":"75","NAME":"Ryan","EMAIL":[{"ID":"165","VALUE_TYPE":"WORK","VALUE":"ryantessier@fractodata.com","TYPE_ID":"EMAIL"}],"PHONE":[{"ID":"167","VALUE_TYPE":"WORK","VALUE":"+13065262900","TYPE_ID":"PHONE"}]},{"ID":"77","NAME":"Ruslan ","EMAIL":[{"ID":"169","VALUE_TYPE":"WORK","VALUE":"polhhamar@gmail.com","TYPE_ID":"EMAIL"}],"PHONE":[{"ID":"171","VALUE_TYPE":"WORK","VALUE":"+971543712099","TYPE_ID":"PHONE"}]},{"ID":"79","NAME":"Angelie","EMAIL":[{"ID":"173","VALUE_TYPE":"WORK","VALUE":"angie@australiancreditlawyers.com.au","TYPE_ID":"EMAIL"}],"PHONE":[{"ID":"175","VALUE_TYPE":"WORK","VALUE":"+0480089912","TYPE_ID":"PHONE"}]},{"ID":"81","NAME":"Basil","EMAIL":[{"ID":"177","VALUE_TYPE":"WORK","VALUE":"basil.kurian@healthcareers.edu.au","TYPE_ID":"EMAIL"}],"PHONE":[{"ID":"179","VALUE_TYPE":"WORK","VALUE":"+919946142544","TYPE_ID":"PHONE"}]},{"ID":"83","NAME":"Mehmet","EMAIL":[{"ID":"181","VALUE_TYPE":"WORK","VALUE":"mhilal@vartur.ae","TYPE_ID":"EMAIL"}],"PHONE":[{"ID":"183","VALUE_TYPE":"WORK","VALUE":"+971543213232","TYPE_ID":"PHONE"}]},{"ID":"85","NAME":"Rozz","EMAIL":[{"ID":"185","VALUE_TYPE":"WORK","VALUE":"rozz@monacoprojects.com","TYPE_ID":"EMAIL"}],"PHONE":[{"ID":"187","VALUE_TYPE":"WORK","VALUE":"+33607938497","TYPE_ID":"PHONE"}]},{"ID":"87","NAME":"Marcelli ","EMAIL":[{"ID":"189","VALUE_TYPE":"WORK","VALUE":"marcelli.delvalle@gmail.com","TYPE_ID":"EMAIL"}],"PHONE":[{"ID":"191","VALUE_TYPE":"WORK","VALUE":"+17782226618","TYPE_ID":"PHONE"}]},{"ID":"89","NAME":"Papa Abdoulaye","EMAIL":[{"ID":"193","VALUE_TYPE":"WORK","VALUE":"pabocoum10@gmail.com","TYPE_ID":"EMAIL"}],"PHONE":[{"ID":"195","VALUE_TYPE":"WORK","VALUE":"+36304953","TYPE_ID":"PHONE"}]},{"ID":"91","NAME":"neil","EMAIL":[{"ID":"197","VALUE_TYPE":"WORK","VALUE":"neilwoo1234@gmail.com","TYPE_ID":"EMAIL"}],"PHONE":[{"ID":"199","VALUE_TYPE":"WORK","VALUE":"+61400111111","TYPE_ID":"PHONE"}]},{"ID":"93","NAME":"Kyle","EMAIL":[{"ID":"201","VALUE_TYPE":"WORK","VALUE":"kyle.couture@canadacentral.ca","TYPE_ID":"EMAIL"}],"PHONE":[{"ID":"203","VALUE_TYPE":"WORK","VALUE":"+16136997996","TYPE_ID":"PHONE"}]},{"ID":"95","NAME":"Faris","EMAIL":[{"ID":"205","VALUE_TYPE":"WORK","VALUE":"farisahamad@gmail.com","TYPE_ID":"EMAIL"}],"PHONE":[{"ID":"207","VALUE_TYPE":"WORK","VALUE":"+971521271679","TYPE_ID":"PHONE"}]},{"ID":"97","NAME":"Yogesh","EMAIL":[{"ID":"209","VALUE_TYPE":"WORK","VALUE":"yogesh.manchanda1@gmail.com","TYPE_ID":"EMAIL"}],"PHONE":[{"ID":"211","VALUE_TYPE":"WORK","VALUE":"+971568083308","TYPE_ID":"PHONE"}]},{"ID":"99","NAME":"Sravan","PHONE":[{"ID":"213","VALUE_TYPE":"OTHER","VALUE":"+09246985976","TYPE_ID":"PHONE"}],"EMAIL":[{"ID":"215","VALUE_TYPE":"OTHER","VALUE":"contactmukka@gmail.com","TYPE_ID":"EMAIL"}]}],"next":50,"total":1457,"time":{"start":1728915308.011309,"finish":1728915308.1484,"duration":0.13709115982055664,"processing":0.09563994407653809,"date_start":"2024-10-14T17:15:08+03:00","date_finish":"2024-10-14T17:15:08+03:00","operating_reset_at":1728915908,"operating":0}}}