{"url":"https:\/\/vortexwebclouds.bitrix24.in\/rest\/223\/fij2hs4zk4rmj30j\/crm.contact.list.json","info":{"url":"https:\/\/vortexwebclouds.bitrix24.in\/rest\/223\/fij2hs4zk4rmj30j\/crm.contact.list.json","content_type":"application\/json; charset=utf-8","http_code":200,"header_size":1026,"request_size":218,"filetime":-1,"ssl_verify_result":0,"redirect_count":0,"total_time":1.548022,"namelookup_time":0.0291,"connect_time":0.098215,"pretransfer_time":0.200592,"size_upload":35,"size_download":1959,"speed_download":1265,"speed_upload":22,"download_content_length":-1,"upload_content_length":35,"starttransfer_time":0.2006,"redirect_time":0,"redirect_url":"","primary_ip":"52.66.109.148","certinfo":[],"primary_port":443,"local_ip":"192.168.31.219","local_port":63092,"http_version":3,"protocol":2,"ssl_verifyresult":0,"scheme":"HTTPS","appconnect_time_us":200424,"connect_time_us":98215,"namelookup_time_us":29100,"pretransfer_time_us":200592,"redirect_time_us":0,"starttransfer_time_us":200600,"total_time_us":1548022},"params":{"method":"crm.contact.list","params":{"select":["ID","NAME"]}},"result":{"result":[{"ID":"1","NAME":"MORELA"},{"ID":"3","NAME":"Google"},{"ID":"5","NAME":"apn-no-reply@amazon.com"},{"ID":"7","NAME":"noreply@bitrix24.com"},{"ID":"9","NAME":"partners@bitrix24.com"},{"ID":"11","NAME":"no-reply@bitrix24.net"},{"ID":"13","NAME":"Mail Delivery Subsystem"},{"ID":"15","NAME":"noreply@bitrix24.net"},{"ID":"17","NAME":"LinkedIn Security"},{"ID":"19","NAME":"noreply@sonetel.com"},{"ID":"21","NAME":"Human resources"},{"ID":"23","NAME":"Calendly Webinars"},{"ID":"25","NAME":"The Calendly Team"},{"ID":"27","NAME":"Ishika"},{"ID":"29","NAME":"mikhail.rubashkin@gmail.com"},{"ID":"31","NAME":"Hirect"},{"ID":"33","NAME":"Google Workspace Technical Support Test Sender"},{"ID":"35","NAME":"Gmail Team"},{"ID":"37","NAME":"Ishika Vishnoi"},{"ID":"39","NAME":"Abdelrahman"},{"ID":"41","NAME":"qwerty"},{"ID":"43","NAME":"Aleksandr"},{"ID":"45","NAME":"eddie"},{"ID":"47","NAME":"Irina"},{"ID":"49","NAME":"Saeed"},{"ID":"51","NAME":"Mai"},{"ID":"53","NAME":"ABC PROPERTIES BROKERAGE SP LLC"},{"ID":"55","NAME":"Javed"},{"ID":"57","NAME":"reza"},{"ID":"59","NAME":"Neelima"},{"ID":"61","NAME":"Ahmad"},{"ID":"63","NAME":"Muhammad Aaliyan"},{"ID":"65","NAME":"Harry"},{"ID":"67","NAME":"Youness"},{"ID":"69","NAME":"VINEESH"},{"ID":"71","NAME":"Surya"},{"ID":"73","NAME":"Omar"},{"ID":"75","NAME":"Ryan"},{"ID":"77","NAME":"Ruslan "},{"ID":"79","NAME":"Angelie"},{"ID":"81","NAME":"Basil"},{"ID":"83","NAME":"Mehmet"},{"ID":"85","NAME":"Rozz"},{"ID":"87","NAME":"Marcelli "},{"ID":"89","NAME":"Papa Abdoulaye"},{"ID":"91","NAME":"neil"},{"ID":"93","NAME":"Kyle"},{"ID":"95","NAME":"Faris"},{"ID":"97","NAME":"Yogesh"},{"ID":"99","NAME":"Sravan"}],"next":50,"total":1457,"time":{"start":1728903632.730478,"finish":1728903633.16735,"duration":0.4368720054626465,"processing":0.31879305839538574,"date_start":"2024-10-14T14:00:32+03:00","date_finish":"2024-10-14T14:00:33+03:00","operating_reset_at":1728904232,"operating":0.3187689781188965}}}