{"url":"https:\/\/vortexwebclouds.bitrix24.in\/rest\/223\/fij2hs4zk4rmj30j\/crm.deal.list.json","info":{"url":"https:\/\/vortexwebclouds.bitrix24.in\/rest\/223\/fij2hs4zk4rmj30j\/crm.deal.list.json","content_type":"application\/json; charset=utf-8","http_code":200,"header_size":1027,"request_size":215,"filetime":-1,"ssl_verify_result":0,"redirect_count":0,"total_time":0.57644,"namelookup_time":0.008201,"connect_time":0.101955,"pretransfer_time":0.184574,"size_upload":36,"size_download":3007,"speed_download":5220,"speed_upload":62,"download_content_length":-1,"upload_content_length":36,"starttransfer_time":0.184589,"redirect_time":0,"redirect_url":"","primary_ip":"52.66.109.148","certinfo":[],"primary_port":443,"local_ip":"192.168.31.219","local_port":64644,"http_version":3,"protocol":2,"ssl_verifyresult":0,"scheme":"HTTPS","appconnect_time_us":184365,"connect_time_us":101955,"namelookup_time_us":8201,"pretransfer_time_us":184574,"redirect_time_us":0,"starttransfer_time_us":184589,"total_time_us":576440},"params":{"method":"crm.deal.list","params":{"select":["ID","TITLE"]}},"result":{"result":[{"ID":"43","TITLE":"Bitrix24 Implementation Request"},{"ID":"47","TITLE":"Bitrix24 Implementation Request"},{"ID":"65","TITLE":"Bitrix24 Implementation Request"},{"ID":"77","TITLE":"Deal #77"},{"ID":"79","TITLE":"Bitrix24 Implementation Request"},{"ID":"81","TITLE":"Bitrix24 Implementation Request"},{"ID":"85","TITLE":"Deal #85"},{"ID":"87","TITLE":"Bitrix24 Implementation Request"},{"ID":"89","TITLE":"Bitrix24 Implementation Request"},{"ID":"91","TITLE":"Bitrix24 Implementation Request"},{"ID":"93","TITLE":"Bitrix24 Implementation Request"},{"ID":"95","TITLE":"Bitrix24 Implementation Request"},{"ID":"97","TITLE":"Bitrix24 Implementation Request"},{"ID":"99","TITLE":"Bitrix24 Implementation Request"},{"ID":"101","TITLE":"Bitrix24 Implementation Request"},{"ID":"103","TITLE":"Bitrix24 Implementation Request"},{"ID":"105","TITLE":"Bitrix24 Implementation Request"},{"ID":"107","TITLE":"Bitrix24 Implementation Request"},{"ID":"109","TITLE":"Bitrix24 Implementation Request"},{"ID":"111","TITLE":"Bitrix24 Implementation Request"},{"ID":"113","TITLE":"Bitrix24 Implementation Request"},{"ID":"115","TITLE":"Bitrix24 Implementation Request"},{"ID":"117","TITLE":"Bitrix24 Implementation Request"},{"ID":"119","TITLE":"Bitrix24 Implementation Request"},{"ID":"121","TITLE":"Bitrix24 Implementation Request"},{"ID":"123","TITLE":"Bitrix24 Implementation Request"},{"ID":"127","TITLE":"Bitrix24 Implementation Request"},{"ID":"129","TITLE":"Bitrix24 Implementation Request"},{"ID":"131","TITLE":"Bitrix24 Implementation Request"},{"ID":"137","TITLE":"Bitrix24 Implementation Request"},{"ID":"139","TITLE":"Bitrix24 Implementation Request"},{"ID":"141","TITLE":"Bitrix24 Implementation Request"},{"ID":"143","TITLE":"Bitrix24 Implementation Request"},{"ID":"145","TITLE":"Bitrix24 Implementation Request"},{"ID":"147","TITLE":"Bitrix24 Implementation Request"},{"ID":"149","TITLE":"Bitrix24 Implementation Request"},{"ID":"151","TITLE":"Bitrix24 Implementation Request"},{"ID":"153","TITLE":"Bitrix24 Implementation Request"},{"ID":"155","TITLE":"Bitrix24 Implementation Request"},{"ID":"157","TITLE":"Bitrix24 Implementation Request"},{"ID":"159","TITLE":"Bitrix24 Implementation Request"},{"ID":"161","TITLE":"Bitrix24 Implementation Request"},{"ID":"189","TITLE":"Bitrix24 Implementation Request"},{"ID":"191","TITLE":"Re: Supercharge Your Business with Bitrix24: Schedule a Meeting Today!"},{"ID":"197","TITLE":"Bitrix24 Implementation Request"},{"ID":"207","TITLE":"Bitrix24 Implementation Request"},{"ID":"217","TITLE":"Bitrix24 Implementation Request"},{"ID":"223","TITLE":"Guest - Whatsapp"},{"ID":"227","TITLE":"Bitrix24 Implementation Request"},{"ID":"229","TITLE":"Bitrix24 Implementation Request"}],"next":50,"total":1050,"time":{"start":1728907060.109629,"finish":1728907060.195435,"duration":0.08580613136291504,"processing":0.05197501182556152,"date_start":"2024-10-14T14:57:40+03:00","date_finish":"2024-10-14T14:57:40+03:00","operating_reset_at":1728907660,"operating":0}}}