{"url":"https:\/\/vortexwebclouds.bitrix24.in\/rest\/223\/fij2hs4zk4rmj30j\/crm.deal.list.json","info":{"url":"https:\/\/vortexwebclouds.bitrix24.in\/rest\/223\/fij2hs4zk4rmj30j\/crm.deal.list.json","content_type":"application\/json; charset=utf-8","http_code":200,"header_size":1026,"request_size":215,"filetime":-1,"ssl_verify_result":0,"redirect_count":0,"total_time":1.167102,"namelookup_time":0.001048,"connect_time":0.064682,"pretransfer_time":0.150095,"size_upload":36,"size_download":3023,"speed_download":2590,"speed_upload":30,"download_content_length":-1,"upload_content_length":36,"starttransfer_time":0.150099,"redirect_time":0,"redirect_url":"","primary_ip":"52.66.109.148","certinfo":[],"primary_port":443,"local_ip":"192.168.31.219","local_port":64023,"http_version":3,"protocol":2,"ssl_verifyresult":0,"scheme":"HTTPS","appconnect_time_us":150008,"connect_time_us":64682,"namelookup_time_us":1048,"pretransfer_time_us":150095,"redirect_time_us":0,"starttransfer_time_us":150099,"total_time_us":1167102},"params":{"method":"crm.deal.list","params":{"select":["ID","TITLE"]}},"result":{"result":[{"ID":"43","TITLE":"Bitrix24 Implementation Request"},{"ID":"47","TITLE":"Bitrix24 Implementation Request"},{"ID":"65","TITLE":"Bitrix24 Implementation Request"},{"ID":"77","TITLE":"Deal #77"},{"ID":"79","TITLE":"Bitrix24 Implementation Request"},{"ID":"81","TITLE":"Bitrix24 Implementation Request"},{"ID":"85","TITLE":"Deal #85"},{"ID":"87","TITLE":"Bitrix24 Implementation Request"},{"ID":"89","TITLE":"Bitrix24 Implementation Request"},{"ID":"91","TITLE":"Bitrix24 Implementation Request"},{"ID":"93","TITLE":"Bitrix24 Implementation Request"},{"ID":"95","TITLE":"Bitrix24 Implementation Request"},{"ID":"97","TITLE":"Bitrix24 Implementation Request"},{"ID":"99","TITLE":"Bitrix24 Implementation Request"},{"ID":"101","TITLE":"Bitrix24 Implementation Request"},{"ID":"103","TITLE":"Bitrix24 Implementation Request"},{"ID":"105","TITLE":"Bitrix24 Implementation Request"},{"ID":"107","TITLE":"Bitrix24 Implementation Request"},{"ID":"109","TITLE":"Bitrix24 Implementation Request"},{"ID":"111","TITLE":"Bitrix24 Implementation Request"},{"ID":"113","TITLE":"Bitrix24 Implementation Request"},{"ID":"115","TITLE":"Bitrix24 Implementation Request"},{"ID":"117","TITLE":"Bitrix24 Implementation Request"},{"ID":"119","TITLE":"Bitrix24 Implementation Request"},{"ID":"121","TITLE":"Bitrix24 Implementation Request"},{"ID":"123","TITLE":"Bitrix24 Implementation Request"},{"ID":"127","TITLE":"Bitrix24 Implementation Request"},{"ID":"129","TITLE":"Bitrix24 Implementation Request"},{"ID":"131","TITLE":"Bitrix24 Implementation Request"},{"ID":"137","TITLE":"Bitrix24 Implementation Request"},{"ID":"139","TITLE":"Bitrix24 Implementation Request"},{"ID":"141","TITLE":"Bitrix24 Implementation Request"},{"ID":"143","TITLE":"Bitrix24 Implementation Request"},{"ID":"145","TITLE":"Bitrix24 Implementation Request"},{"ID":"147","TITLE":"Bitrix24 Implementation Request"},{"ID":"149","TITLE":"Bitrix24 Implementation Request"},{"ID":"151","TITLE":"Bitrix24 Implementation Request"},{"ID":"153","TITLE":"Bitrix24 Implementation Request"},{"ID":"155","TITLE":"Bitrix24 Implementation Request"},{"ID":"157","TITLE":"Bitrix24 Implementation Request"},{"ID":"159","TITLE":"Bitrix24 Implementation Request"},{"ID":"161","TITLE":"Bitrix24 Implementation Request"},{"ID":"189","TITLE":"Bitrix24 Implementation Request"},{"ID":"191","TITLE":"Re: Supercharge Your Business with Bitrix24: Schedule a Meeting Today!"},{"ID":"197","TITLE":"Bitrix24 Implementation Request"},{"ID":"207","TITLE":"Bitrix24 Implementation Request"},{"ID":"217","TITLE":"Bitrix24 Implementation Request"},{"ID":"223","TITLE":"Guest - Whatsapp"},{"ID":"227","TITLE":"Bitrix24 Implementation Request"},{"ID":"229","TITLE":"Bitrix24 Implementation Request"}],"next":50,"total":1050,"time":{"start":1728905436.716563,"finish":1728905436.855397,"duration":0.13883399963378906,"processing":0.08725190162658691,"date_start":"2024-10-14T14:30:36+03:00","date_finish":"2024-10-14T14:30:36+03:00","operating_reset_at":1728906036,"operating":0.2974889278411865}}}