{"url":"https:\/\/vortexwebclouds.bitrix24.in\/rest\/223\/fij2hs4zk4rmj30j\/crm.deal.list.json","info":{"url":"https:\/\/vortexwebclouds.bitrix24.in\/rest\/223\/fij2hs4zk4rmj30j\/crm.deal.list.json","content_type":"application\/json; charset=utf-8","http_code":200,"header_size":1027,"request_size":216,"filetime":-1,"ssl_verify_result":0,"redirect_count":0,"total_time":0.624863,"namelookup_time":0.002549,"connect_time":0.096764,"pretransfer_time":0.210414,"size_upload":424,"size_download":5343,"speed_download":8562,"speed_upload":679,"download_content_length":-1,"upload_content_length":424,"starttransfer_time":0.210426,"redirect_time":0,"redirect_url":"","primary_ip":"52.66.109.148","certinfo":[],"primary_port":443,"local_ip":"192.168.31.219","local_port":55271,"http_version":3,"protocol":2,"ssl_verifyresult":0,"scheme":"HTTPS","appconnect_time_us":210152,"connect_time_us":96764,"namelookup_time_us":2549,"pretransfer_time_us":210414,"redirect_time_us":0,"starttransfer_time_us":210426,"total_time_us":624863},"params":{"method":"crm.deal.list","params":{"select":["ID","TITLE","UF_CRM_CLIENT","UF_CRM_PROPERTY_PRICE","ASSIGNED_BY_ID","UF_CRM_DEAL_NAME","CLOSEDATE","UF_CRM_PROPERTY_TYPE","UF_CRM_TRANSACTION_TYPE","UF_CRM_PROJECT_NAME","UF_CRM_UNIT_NO","UF_CRM_DEVELOPER_NAME","UF_CRM_REFERRAL","UF_CRM_REFERRAL_FEE"]}},"result":{"result":[{"ID":"43","TITLE":"Bitrix24 Implementation Request","ASSIGNED_BY_ID":"141","CLOSEDATE":"2023-09-27T03:00:00+03:00"},{"ID":"47","TITLE":"Bitrix24 Implementation Request","ASSIGNED_BY_ID":"141","CLOSEDATE":"2023-09-27T03:00:00+03:00"},{"ID":"65","TITLE":"Bitrix24 Implementation Request","ASSIGNED_BY_ID":"51","CLOSEDATE":"2023-08-05T03:00:00+03:00"},{"ID":"77","TITLE":"Deal #77","ASSIGNED_BY_ID":"1","CLOSEDATE":"2023-08-06T03:00:00+03:00"},{"ID":"79","TITLE":"Bitrix24 Implementation Request","ASSIGNED_BY_ID":"141","CLOSEDATE":"2023-09-27T03:00:00+03:00"},{"ID":"81","TITLE":"Bitrix24 Implementation Request","ASSIGNED_BY_ID":"141","CLOSEDATE":"2023-09-27T03:00:00+03:00"},{"ID":"85","TITLE":"Deal #85","ASSIGNED_BY_ID":"1","CLOSEDATE":"2023-08-08T03:00:00+03:00"},{"ID":"87","TITLE":"Bitrix24 Implementation Request","ASSIGNED_BY_ID":"141","CLOSEDATE":""},{"ID":"89","TITLE":"Bitrix24 Implementation Request","ASSIGNED_BY_ID":"141","CLOSEDATE":""},{"ID":"91","TITLE":"Bitrix24 Implementation Request","ASSIGNED_BY_ID":"141","CLOSEDATE":""},{"ID":"93","TITLE":"Bitrix24 Implementation Request","ASSIGNED_BY_ID":"141","CLOSEDATE":""},{"ID":"95","TITLE":"Bitrix24 Implementation Request","ASSIGNED_BY_ID":"141","CLOSEDATE":""},{"ID":"97","TITLE":"Bitrix24 Implementation Request","ASSIGNED_BY_ID":"141","CLOSEDATE":""},{"ID":"99","TITLE":"Bitrix24 Implementation Request","ASSIGNED_BY_ID":"167","CLOSEDATE":""},{"ID":"101","TITLE":"Bitrix24 Implementation Request","ASSIGNED_BY_ID":"167","CLOSEDATE":""},{"ID":"103","TITLE":"Bitrix24 Implementation Request","ASSIGNED_BY_ID":"141","CLOSEDATE":""},{"ID":"105","TITLE":"Bitrix24 Implementation Request","ASSIGNED_BY_ID":"141","CLOSEDATE":""},{"ID":"107","TITLE":"Bitrix24 Implementation Request","ASSIGNED_BY_ID":"141","CLOSEDATE":""},{"ID":"109","TITLE":"Bitrix24 Implementation Request","ASSIGNED_BY_ID":"51","CLOSEDATE":"2023-09-27T03:00:00+03:00"},{"ID":"111","TITLE":"Bitrix24 Implementation Request","ASSIGNED_BY_ID":"141","CLOSEDATE":"2023-09-27T03:00:00+03:00"},{"ID":"113","TITLE":"Bitrix24 Implementation Request","ASSIGNED_BY_ID":"51","CLOSEDATE":"2023-09-27T03:00:00+03:00"},{"ID":"115","TITLE":"Bitrix24 Implementation Request","ASSIGNED_BY_ID":"167","CLOSEDATE":""},{"ID":"117","TITLE":"Bitrix24 Implementation Request","ASSIGNED_BY_ID":"141","CLOSEDATE":""},{"ID":"119","TITLE":"Bitrix24 Implementation Request","ASSIGNED_BY_ID":"167","CLOSEDATE":""},{"ID":"121","TITLE":"Bitrix24 Implementation Request","ASSIGNED_BY_ID":"167","CLOSEDATE":""},{"ID":"123","TITLE":"Bitrix24 Implementation Request","ASSIGNED_BY_ID":"167","CLOSEDATE":""},{"ID":"127","TITLE":"Bitrix24 Implementation Request","ASSIGNED_BY_ID":"51","CLOSEDATE":"2023-09-27T03:00:00+03:00"},{"ID":"129","TITLE":"Bitrix24 Implementation Request","ASSIGNED_BY_ID":"141","CLOSEDATE":"2023-09-27T03:00:00+03:00"},{"ID":"131","TITLE":"Bitrix24 Implementation Request","ASSIGNED_BY_ID":"141","CLOSEDATE":"2023-09-22T03:00:00+03:00"},{"ID":"137","TITLE":"Bitrix24 Implementation Request","ASSIGNED_BY_ID":"141","CLOSEDATE":""},{"ID":"139","TITLE":"Bitrix24 Implementation Request","ASSIGNED_BY_ID":"141","CLOSEDATE":""},{"ID":"141","TITLE":"Bitrix24 Implementation Request","ASSIGNED_BY_ID":"167","CLOSEDATE":""},{"ID":"143","TITLE":"Bitrix24 Implementation Request","ASSIGNED_BY_ID":"141","CLOSEDATE":""},{"ID":"145","TITLE":"Bitrix24 Implementation Request","ASSIGNED_BY_ID":"37","CLOSEDATE":"2023-10-16T03:00:00+03:00"},{"ID":"147","TITLE":"Bitrix24 Implementation Request","ASSIGNED_BY_ID":"167","CLOSEDATE":""},{"ID":"149","TITLE":"Bitrix24 Implementation Request","ASSIGNED_BY_ID":"167","CLOSEDATE":""},{"ID":"151","TITLE":"Bitrix24 Implementation Request","ASSIGNED_BY_ID":"141","CLOSEDATE":""},{"ID":"153","TITLE":"Bitrix24 Implementation Request","ASSIGNED_BY_ID":"167","CLOSEDATE":""},{"ID":"155","TITLE":"Bitrix24 Implementation Request","ASSIGNED_BY_ID":"141","CLOSEDATE":""},{"ID":"157","TITLE":"Bitrix24 Implementation Request","ASSIGNED_BY_ID":"167","CLOSEDATE":""},{"ID":"159","TITLE":"Bitrix24 Implementation Request","ASSIGNED_BY_ID":"141","CLOSEDATE":""},{"ID":"161","TITLE":"Bitrix24 Implementation Request","ASSIGNED_BY_ID":"35","CLOSEDATE":"2023-09-19T03:00:00+03:00"},{"ID":"189","TITLE":"Bitrix24 Implementation Request","ASSIGNED_BY_ID":"51","CLOSEDATE":"2024-03-29T03:00:00+03:00"},{"ID":"191","TITLE":"Re: Supercharge Your Business with Bitrix24: Schedule a Meeting Today!","ASSIGNED_BY_ID":"167","CLOSEDATE":"2023-09-25T03:00:00+03:00"},{"ID":"197","TITLE":"Bitrix24 Implementation Request","ASSIGNED_BY_ID":"51","CLOSEDATE":""},{"ID":"207","TITLE":"Bitrix24 Implementation Request","ASSIGNED_BY_ID":"141","CLOSEDATE":""},{"ID":"217","TITLE":"Bitrix24 Implementation Request","ASSIGNED_BY_ID":"141","CLOSEDATE":""},{"ID":"223","TITLE":"Guest - Whatsapp","ASSIGNED_BY_ID":"1","CLOSEDATE":"2023-09-28T03:00:00+03:00"},{"ID":"227","TITLE":"Bitrix24 Implementation Request","ASSIGNED_BY_ID":"141","CLOSEDATE":""},{"ID":"229","TITLE":"Bitrix24 Implementation Request","ASSIGNED_BY_ID":"141","CLOSEDATE":""}],"next":50,"total":1051,"time":{"start":1728973396.820693,"finish":1728973396.918409,"duration":0.09771609306335449,"processing":0.07752799987792969,"date_start":"2024-10-15T09:23:16+03:00","date_finish":"2024-10-15T09:23:16+03:00","operating_reset_at":1728973996,"operating":0}}}