{"url":"https:\/\/vortexwebclouds.bitrix24.in\/rest\/223\/fij2hs4zk4rmj30j\/crm.deal.list.json","info":{"url":"https:\/\/vortexwebclouds.bitrix24.in\/rest\/223\/fij2hs4zk4rmj30j\/crm.deal.list.json","content_type":"application\/json; charset=utf-8","http_code":200,"header_size":1027,"request_size":216,"filetime":-1,"ssl_verify_result":0,"redirect_count":0,"total_time":1.764646,"namelookup_time":0.100159,"connect_time":0.164858,"pretransfer_time":0.25731,"size_upload":199,"size_download":5793,"speed_download":3284,"speed_upload":112,"download_content_length":-1,"upload_content_length":199,"starttransfer_time":0.257318,"redirect_time":0,"redirect_url":"","primary_ip":"52.66.109.148","certinfo":[],"primary_port":443,"local_ip":"192.168.31.219","local_port":62583,"http_version":3,"protocol":2,"ssl_verifyresult":0,"scheme":"HTTPS","appconnect_time_us":255857,"connect_time_us":164858,"namelookup_time_us":100159,"pretransfer_time_us":257310,"redirect_time_us":0,"starttransfer_time_us":257318,"total_time_us":1764646},"params":{"method":"crm.deal.list","params":{"select":["ID","TITLE","AMOUNT","CURRENCY_ID","NAME","DEAL_NUMBER","CLIENT","CONTACT_ID","COMPANY_ID"]}},"result":{"result":[{"ID":"43","TITLE":"Bitrix24 Implementation Request","CURRENCY_ID":"INR","CONTACT_ID":"39","COMPANY_ID":"0"},{"ID":"47","TITLE":"Bitrix24 Implementation Request","CURRENCY_ID":"INR","CONTACT_ID":"43","COMPANY_ID":"0"},{"ID":"65","TITLE":"Bitrix24 Implementation Request","CURRENCY_ID":"INR","CONTACT_ID":"45","COMPANY_ID":"0"},{"ID":"77","TITLE":"Deal #77","CURRENCY_ID":"INR","CONTACT_ID":null,"COMPANY_ID":"0"},{"ID":"79","TITLE":"Bitrix24 Implementation Request","CURRENCY_ID":"INR","CONTACT_ID":"47","COMPANY_ID":"0"},{"ID":"81","TITLE":"Bitrix24 Implementation Request","CURRENCY_ID":"INR","CONTACT_ID":"49","COMPANY_ID":"0"},{"ID":"85","TITLE":"Deal #85","CURRENCY_ID":"INR","CONTACT_ID":"7","COMPANY_ID":"0"},{"ID":"87","TITLE":"Bitrix24 Implementation Request","CURRENCY_ID":"INR","CONTACT_ID":"53","COMPANY_ID":"0"},{"ID":"89","TITLE":"Bitrix24 Implementation Request","CURRENCY_ID":"INR","CONTACT_ID":"55","COMPANY_ID":"0"},{"ID":"91","TITLE":"Bitrix24 Implementation Request","CURRENCY_ID":"INR","CONTACT_ID":"57","COMPANY_ID":"0"},{"ID":"93","TITLE":"Bitrix24 Implementation Request","CURRENCY_ID":"INR","CONTACT_ID":"59","COMPANY_ID":"0"},{"ID":"95","TITLE":"Bitrix24 Implementation Request","CURRENCY_ID":"INR","CONTACT_ID":"61","COMPANY_ID":"0"},{"ID":"97","TITLE":"Bitrix24 Implementation Request","CURRENCY_ID":"INR","CONTACT_ID":"63","COMPANY_ID":"0"},{"ID":"99","TITLE":"Bitrix24 Implementation Request","CURRENCY_ID":"INR","CONTACT_ID":"65","COMPANY_ID":"0"},{"ID":"101","TITLE":"Bitrix24 Implementation Request","CURRENCY_ID":"INR","CONTACT_ID":"67","COMPANY_ID":"0"},{"ID":"103","TITLE":"Bitrix24 Implementation Request","CURRENCY_ID":"INR","CONTACT_ID":"69","COMPANY_ID":"0"},{"ID":"105","TITLE":"Bitrix24 Implementation Request","CURRENCY_ID":"INR","CONTACT_ID":"71","COMPANY_ID":"0"},{"ID":"107","TITLE":"Bitrix24 Implementation Request","CURRENCY_ID":"INR","CONTACT_ID":"73","COMPANY_ID":"0"},{"ID":"109","TITLE":"Bitrix24 Implementation Request","CURRENCY_ID":"INR","CONTACT_ID":"75","COMPANY_ID":"0"},{"ID":"111","TITLE":"Bitrix24 Implementation Request","CURRENCY_ID":"INR","CONTACT_ID":"77","COMPANY_ID":"0"},{"ID":"113","TITLE":"Bitrix24 Implementation Request","CURRENCY_ID":"INR","CONTACT_ID":"79","COMPANY_ID":"0"},{"ID":"115","TITLE":"Bitrix24 Implementation Request","CURRENCY_ID":"INR","CONTACT_ID":"81","COMPANY_ID":"0"},{"ID":"117","TITLE":"Bitrix24 Implementation Request","CURRENCY_ID":"INR","CONTACT_ID":"83","COMPANY_ID":"0"},{"ID":"119","TITLE":"Bitrix24 Implementation Request","CURRENCY_ID":"INR","CONTACT_ID":"85","COMPANY_ID":"0"},{"ID":"121","TITLE":"Bitrix24 Implementation Request","CURRENCY_ID":"INR","CONTACT_ID":"87","COMPANY_ID":"0"},{"ID":"123","TITLE":"Bitrix24 Implementation Request","CURRENCY_ID":"INR","CONTACT_ID":"89","COMPANY_ID":"0"},{"ID":"127","TITLE":"Bitrix24 Implementation Request","CURRENCY_ID":"INR","CONTACT_ID":"93","COMPANY_ID":"0"},{"ID":"129","TITLE":"Bitrix24 Implementation Request","CURRENCY_ID":"INR","CONTACT_ID":"95","COMPANY_ID":"0"},{"ID":"131","TITLE":"Bitrix24 Implementation Request","CURRENCY_ID":"INR","CONTACT_ID":"97","COMPANY_ID":"0"},{"ID":"137","TITLE":"Bitrix24 Implementation Request","CURRENCY_ID":"INR","CONTACT_ID":"101","COMPANY_ID":"0"},{"ID":"139","TITLE":"Bitrix24 Implementation Request","CURRENCY_ID":"INR","CONTACT_ID":"103","COMPANY_ID":"0"},{"ID":"141","TITLE":"Bitrix24 Implementation Request","CURRENCY_ID":"INR","CONTACT_ID":"105","COMPANY_ID":"0"},{"ID":"143","TITLE":"Bitrix24 Implementation Request","CURRENCY_ID":"INR","CONTACT_ID":"107","COMPANY_ID":"0"},{"ID":"145","TITLE":"Bitrix24 Implementation Request","CURRENCY_ID":"INR","CONTACT_ID":"109","COMPANY_ID":"0"},{"ID":"147","TITLE":"Bitrix24 Implementation Request","CURRENCY_ID":"INR","CONTACT_ID":"111","COMPANY_ID":"0"},{"ID":"149","TITLE":"Bitrix24 Implementation Request","CURRENCY_ID":"INR","CONTACT_ID":"113","COMPANY_ID":"0"},{"ID":"151","TITLE":"Bitrix24 Implementation Request","CURRENCY_ID":"INR","CONTACT_ID":"115","COMPANY_ID":"0"},{"ID":"153","TITLE":"Bitrix24 Implementation Request","CURRENCY_ID":"INR","CONTACT_ID":"117","COMPANY_ID":"0"},{"ID":"155","TITLE":"Bitrix24 Implementation Request","CURRENCY_ID":"INR","CONTACT_ID":"119","COMPANY_ID":"0"},{"ID":"157","TITLE":"Bitrix24 Implementation Request","CURRENCY_ID":"INR","CONTACT_ID":"121","COMPANY_ID":"0"},{"ID":"159","TITLE":"Bitrix24 Implementation Request","CURRENCY_ID":"INR","CONTACT_ID":"123","COMPANY_ID":"0"},{"ID":"161","TITLE":"Bitrix24 Implementation Request","CURRENCY_ID":"INR","CONTACT_ID":"125","COMPANY_ID":"0"},{"ID":"189","TITLE":"Bitrix24 Implementation Request","CURRENCY_ID":"INR","CONTACT_ID":"147","COMPANY_ID":"0"},{"ID":"191","TITLE":"Re: Supercharge Your Business with Bitrix24: Schedule a Meeting Today!","CURRENCY_ID":"INR","CONTACT_ID":"149","COMPANY_ID":"0"},{"ID":"197","TITLE":"Bitrix24 Implementation Request","CURRENCY_ID":"INR","CONTACT_ID":"151","COMPANY_ID":"0"},{"ID":"207","TITLE":"Bitrix24 Implementation Request","CURRENCY_ID":"INR","CONTACT_ID":"155","COMPANY_ID":"0"},{"ID":"217","TITLE":"Bitrix24 Implementation Request","CURRENCY_ID":"INR","CONTACT_ID":"159","COMPANY_ID":"0"},{"ID":"223","TITLE":"Guest - Whatsapp","CURRENCY_ID":"INR","CONTACT_ID":"165","COMPANY_ID":"0"},{"ID":"227","TITLE":"Bitrix24 Implementation Request","CURRENCY_ID":"INR","CONTACT_ID":"167","COMPANY_ID":"0"},{"ID":"229","TITLE":"Bitrix24 Implementation Request","CURRENCY_ID":"INR","CONTACT_ID":"169","COMPANY_ID":"0"}],"next":50,"total":1050,"time":{"start":1728902737.770016,"finish":1728902738.740151,"duration":0.970134973526001,"processing":0.7716991901397705,"date_start":"2024-10-14T13:45:37+03:00","date_finish":"2024-10-14T13:45:38+03:00","operating_reset_at":1728903337,"operating":0.7716720104217529}}}